laboratorio1/problema3/simulation/modelsim/contador_debug.vcd
$date
	Fri Aug 22 01:10:37 2025
$end
$version
	ModelSim Version 2020.1
$end
$timescale
	1ps
$end

$scope module tb_contador_top $end
$var reg 1 ! clk $end
$var reg 1 " btn_increment $end
$var reg 1 # switch_reset $end
$var reg 6 $ count [5:0] $end
$var reg 1 % btn_clean $end

$scope module dut $end
$var wire 1 & clk $end
$var wire 1 ' btn_increment $end
$var wire 1 ( switch_reset $end
$var reg 6 ) count [5:0] $end
$var reg 1 * btn_clean $end

$scope module debouncer $end
$var wire 1 & clk $end
$var wire 1 ' btn_raw $end
$var wire 1 ( reset $end
$var reg 1 + btn_pulse $end
$var reg 1 , q0 $end
$var reg 1 - nq0 $end
$var reg 1 . q1 $end
$var reg 1 / nq1 $end
$var reg 1 0 q2 $end
$var reg 1 1 nq2 $end
$var reg 1 2 reset_n $end

$scope module ff0 $end
$var wire 1 ' D $end
$var wire 1 & CLK $end
$var wire 1 3 PRE $end
$var wire 1 4 CLR $end
$var reg 1 5 Q $end
$var reg 1 6 nQ $end
$var reg 1 7 nD $end
$var reg 1 8 CLK_n $end
$var reg 1 9 Sm $end
$var reg 1 : Rm $end
$var reg 1 ; Qm $end
$var reg 1 < nQm $end
$var reg 1 = Ss $end
$var reg 1 > Rs $end
$upscope $end

$scope module ff1 $end
$var wire 1 ? D $end
$var wire 1 & CLK $end
$var wire 1 @ PRE $end
$var wire 1 A CLR $end
$var reg 1 B Q $end
$var reg 1 C nQ $end
$var reg 1 D nD $end
$var reg 1 E CLK_n $end
$var reg 1 F Sm $end
$var reg 1 G Rm $end
$var reg 1 H Qm $end
$var reg 1 I nQm $end
$var reg 1 J Ss $end
$var reg 1 K Rs $end
$upscope $end

$scope module ff2 $end
$var wire 1 L D $end
$var wire 1 & CLK $end
$var wire 1 M PRE $end
$var wire 1 N CLR $end
$var reg 1 O Q $end
$var reg 1 P nQ $end
$var reg 1 Q nD $end
$var reg 1 R CLK_n $end
$var reg 1 S Sm $end
$var reg 1 T Rm $end
$var reg 1 U Qm $end
$var reg 1 V nQm $end
$var reg 1 W Ss $end
$var reg 1 X Rs $end
$upscope $end
$upscope $end

$scope module counter $end
$var wire 1 Y btn_clk $end
$var wire 1 ( reset $end
$var reg 6 Z count [5:0] $end
$var reg 6 [ current_count [5:0] $end
$var reg 6 \ next_count [5:0] $end
$var reg 1 ] c0 $end
$var reg 1 ^ c1 $end
$var reg 1 _ c2 $end
$var reg 1 ` c3 $end
$var reg 1 a c4 $end

$scope module ff0 $end
$var wire 1 b D $end
$var wire 1 Y CLK $end
$var wire 1 c PRE $end
$var wire 1 d CLR $end
$var reg 1 e Q $end
$var reg 1 f nQ $end
$var reg 1 g nD $end
$var reg 1 h CLK_n $end
$var reg 1 i Sm $end
$var reg 1 j Rm $end
$var reg 1 k Qm $end
$var reg 1 l nQm $end
$var reg 1 m Ss $end
$var reg 1 n Rs $end
$upscope $end

$scope module ff1 $end
$var wire 1 o D $end
$var wire 1 Y CLK $end
$var wire 1 p PRE $end
$var wire 1 q CLR $end
$var reg 1 r Q $end
$var reg 1 s nQ $end
$var reg 1 t nD $end
$var reg 1 u CLK_n $end
$var reg 1 v Sm $end
$var reg 1 w Rm $end
$var reg 1 x Qm $end
$var reg 1 y nQm $end
$var reg 1 z Ss $end
$var reg 1 { Rs $end
$upscope $end

$scope module ff2 $end
$var wire 1 | D $end
$var wire 1 Y CLK $end
$var wire 1 } PRE $end
$var wire 1 ~ CLR $end
$var reg 1 !! Q $end
$var reg 1 "! nQ $end
$var reg 1 #! nD $end
$var reg 1 $! CLK_n $end
$var reg 1 %! Sm $end
$var reg 1 &! Rm $end
$var reg 1 '! Qm $end
$var reg 1 (! nQm $end
$var reg 1 )! Ss $end
$var reg 1 *! Rs $end
$upscope $end

$scope module ff3 $end
$var wire 1 +! D $end
$var wire 1 Y CLK $end
$var wire 1 ,! PRE $end
$var wire 1 -! CLR $end
$var reg 1 .! Q $end
$var reg 1 /! nQ $end
$var reg 1 0! nD $end
$var reg 1 1! CLK_n $end
$var reg 1 2! Sm $end
$var reg 1 3! Rm $end
$var reg 1 4! Qm $end
$var reg 1 5! nQm $end
$var reg 1 6! Ss $end
$var reg 1 7! Rs $end
$upscope $end

$scope module ff4 $end
$var wire 1 8! D $end
$var wire 1 Y CLK $end
$var wire 1 9! PRE $end
$var wire 1 :! CLR $end
$var reg 1 ;! Q $end
$var reg 1 <! nQ $end
$var reg 1 =! nD $end
$var reg 1 >! CLK_n $end
$var reg 1 ?! Sm $end
$var reg 1 @! Rm $end
$var reg 1 A! Qm $end
$var reg 1 B! nQm $end
$var reg 1 C! Ss $end
$var reg 1 D! Rs $end
$upscope $end

$scope module ff5 $end
$var wire 1 E! D $end
$var wire 1 Y CLK $end
$var wire 1 F! PRE $end
$var wire 1 G! CLR $end
$var reg 1 H! Q $end
$var reg 1 I! nQ $end
$var reg 1 J! nD $end
$var reg 1 K! CLK_n $end
$var reg 1 L! Sm $end
$var reg 1 M! Rm $end
$var reg 1 N! Qm $end
$var reg 1 O! nQm $end
$var reg 1 P! Ss $end
$var reg 1 Q! Rs $end
$upscope $end
$upscope $end
$upscope $end
$upscope $end
$enddefinitions $end
#0
$dumpvars
0!
0"
1#
b0 $
0%
b0 )
0*
0+
0,
1-
0.
1/
00
11
02
05
16
17
18
19
0:
0;
1<
1=
1>
0B
1C
1D
1E
1F
0G
0H
1I
1J
1K
0O
1P
1Q
1R
1S
0T
0U
1V
1W
1X
b0 Z
b0 [
b1 \
0]
0^
0_
0`
0a
0e
1f
0g
1h
0i
1j
1k
1l
1m
1n
0r
1s
1t
1u
1v
0w
0x
1y
1z
1{
0!!
1"!
1#!
1$!
1%!
0&!
0'!
1(!
1)!
1*!
0.!
1/!
10!
11!
12!
03!
04!
15!
16!
17!
0;!
1<!
1=!
1>!
1?!
0@!
0A!
1B!
1C!
1D!
0H!
1I!
1J!
1K!
1L!
0M!
0N!
1O!
1P!
1Q!
0&
0'
1(
1M
1@
13
04
0?
0A
0L
0N
0Y
0G!
1F!
0:!
19!
0-!
1,!
0~
1}
0q
1p
0d
1c
1b
0o
0|
0+!
08!
0E!
$end
#5000
1!
1&
08
0E
0R
0>
0K
0X
1T
1G
1:
#10000
0!
0&
18
1E
1R
1>
1K
1X
0T
0G
0:
#15000
1!
1&
08
0E
0R
0>
0K
0X
1T
1G
1:
#20000
0!
0&
18
1E
1R
1>
1K
1X
0T
0G
0:
#25000
1!
1&
08
0E
0R
0>
0K
0X
1T
1G
1:
#30000
0!
0&
18
1E
1R
1>
1K
1X
0T
0G
0:
#35000
1!
1&
08
0E
0R
0>
0K
0X
1T
1G
1:
#40000
0!
0&
18
1E
1R
1>
1K
1X
0T
0G
0:
#45000
1!
1&
08
0E
0R
0>
0K
0X
1T
1G
1:
#50000
0#
0!
0(
0&
1G!
1:!
1-!
1~
1q
1d
18
1E
1R
0l
1>
1K
1X
12
1N
1A
14
0T
0G
0:
#55000
1!
1&
08
0E
0R
0>
0K
0X
1T
1G
1:
#60000
0!
0&
18
1E
1R
1>
1K
1X
0T
0G
0:
#65000
1!
1&
08
0E
0R
0>
0K
0X
1T
1G
1:
#70000
0!
0&
18
1E
1R
1>
1K
1X
0T
0G
0:
#75000
1!
1&
08
0E
0R
0>
0K
0X
1T
1G
1:
#80000
0!
0&
18
1E
1R
1>
1K
1X
0T
0G
0:
#85000
1!
1&
08
0E
0R
0>
0K
0X
1T
1G
1:
#90000
0!
0&
18
1E
1R
1>
1K
1X
0T
0G
0:
#95000
1!
1&
08
0E
0R
0>
0K
0X
1T
1G
1:
#100000
0!
0&
18
1E
1R
1>
1K
1X
0T
0G
0:
#105000
1!
1&
08
0E
0R
0>
0K
0X
1T
1G
1:
#110000
0!
0&
18
1E
1R
1>
1K
1X
0T
0G
0:
#115000
1!
1&
08
0E
0R
0>
0K
0X
1T
1G
1:
#120000
0!
0&
18
1E
1R
1>
1K
1X
0T
0G
0:
#125000
1!
1&
08
0E
0R
0>
0K
0X
1T
1G
1:
#130000
0!
0&
18
1E
1R
1>
1K
1X
0T
0G
0:
#135000
1!
1&
08
0E
0R
0>
0K
0X
1T
1G
1:
#140000
0!
0&
18
1E
1R
1>
1K
1X
0T
0G
0:
#145000
1!
1&
08
0E
0R
0>
0K
0X
1T
1G
1:
#150000
1"
0!
1'
0&
18
1E
1R
07
1>
1K
1X
0T
0G
09
1;
0<
#155000
1!
1&
08
0E
0R
0=
0K
0X
1T
1G
19
15
1,
1?
06
0D
0-
#160000
0!
0&
18
1E
1R
1=
1K
1X
0T
0F
09
1H
0I
#165000
1!
1&
08
0E
0R
0=
0J
0X
1T
1F
19
1B
1.
1L
0C
0Q
1+
0/
1*
1%
1Y
0h
0u
0$!
01!
0>!
0K!
0m
0{
0*!
07!
0D!
0Q!
1M!
1@!
13!
1&!
1w
1i
1e
b1 [
b1 Z
1]
b0 \
0f
b1 )
b1 $
b10 \
0b
1g
1o
0t
#170000
0!
0&
18
1E
1R
1=
1J
1X
0S
0F
09
1U
0V
#175000
1!
1&
08
0E
0R
0=
0J
0W
1S
1F
19
1O
10
0P
01
0+
0*
0%
0Y
1h
1u
1$!
11!
1>!
1K!
1m
1{
1*!
17!
1D!
1Q!
0M!
0@!
03!
0&!
0v
0j
1l
1x
0y
0k
#180000
0!
0&
18
1E
1R
1=
1J
1W
0S
0F
09
#185000
1!
1&
08
0E
0R
0=
0J
0W
1S
1F
19
#190000
0!
0&
18
1E
1R
1=
1J
1W
0S
0F
09
#195000
1!
1&
08
0E
0R
0=
0J
0W
1S
1F
19
#200000
0!
0&
18
1E
1R
1=
1J
1W
0S
0F
09
#205000
1!
1&
08
0E
0R
0=
0J
0W
1S
1F
19
#210000
0!
0&
18
1E
1R
1=
1J
1W
0S
0F
09
#215000
1!
1&
08
0E
0R
0=
0J
0W
1S
1F
19
#220000
0!
0&
18
1E
1R
1=
1J
1W
0S
0F
09
#225000
1!
1&
08
0E
0R
0=
0J
0W
1S
1F
19
#230000
0!
0&
18
1E
1R
1=
1J
1W
0S
0F
09
#235000
1!
1&
08
0E
0R
0=
0J
0W
1S
1F
19
#240000
0!
0&
18
1E
1R
1=
1J
1W
0S
0F
09
#245000
1!
1&
08
0E
0R
0=
0J
0W
1S
1F
19
#250000
0"
0!
0'
0&
18
1E
1R
17
1=
1J
1W
0S
0F
0:
1<
0;
#255000
1!
1&
08
0E
0R
0>
0J
0W
1S
1F
1:
16
1-
05
0,
0?
1D
#260000
0!
0&
18
1E
1R
1>
1J
1W
0S
0G
0:
1I
0H
#265000
1!
1&
08
0E
0R
0>
0K
0W
1S
1G
1:
1C
1/
0B
0.
0L
1Q
#270000
0!
0&
18
1E
1R
1>
1K
1W
0T
0G
0:
1V
0U
#275000
1!
1&
08
0E
0R
0>
0K
0X
1T
1G
1:
1P
11
0O
00
#280000
0!
0&
18
1E
1R
1>
1K
1X
0T
0G
0:
#285000
1!
1&
08
0E
0R
0>
0K
0X
1T
1G
1:
#290000
0!
0&
18
1E
1R
1>
1K
1X
0T
0G
0:
#295000
1!
1&
08
0E
0R
0>
0K
0X
1T
1G
1:
#300000
0!
0&
18
1E
1R
1>
1K
1X
0T
0G
0:
#305000
1!
1&
08
0E
0R
0>
0K
0X
1T
1G
1:
#310000
0!
0&
18
1E
1R
1>
1K
1X
0T
0G
0:
#315000
1!
1&
08
0E
0R
0>
0K
0X
1T
1G
1:
#320000
0!
0&
18
1E
1R
1>
1K
1X
0T
0G
0:
#325000
1!
1&
08
0E
0R
0>
0K
0X
1T
1G
1:
#330000
0!
0&
18
1E
1R
1>
1K
1X
0T
0G
0:
#335000
1!
1&
08
0E
0R
0>
0K
0X
1T
1G
1:
#340000
0!
0&
18
1E
1R
1>
1K
1X
0T
0G
0:
#345000
1!
1&
08
0E
0R
0>
0K
0X
1T
1G
1:
#350000
0!
0&
18
1E
1R
1>
1K
1X
0T
0G
0:
#355000
1!
1&
08
0E
0R
0>
0K
0X
1T
1G
1:
#360000
0!
0&
18
1E
1R
1>
1K
1X
0T
0G
0:
#365000
1!
1&
08
0E
0R
0>
0K
0X
1T
1G
1:
#370000
0!
0&
18
1E
1R
1>
1K
1X
0T
0G
0:
#375000
1!
1&
08
0E
0R
0>
0K
0X
1T
1G
1:
#380000
0!
0&
18
1E
1R
1>
1K
1X
0T
0G
0:
#385000
1!
1&
08
0E
0R
0>
0K
0X
1T
1G
1:
#390000
0!
0&
18
1E
1R
1>
1K
1X
0T
0G
0:
#395000
1!
1&
08
0E
0R
0>
0K
0X
1T
1G
1:
#400000
0!
0&
18
1E
1R
1>
1K
1X
0T
0G
0:
#405000
1!
1&
08
0E
0R
0>
0K
0X
1T
1G
1:
#410000
0!
0&
18
1E
1R
1>
1K
1X
0T
0G
0:
#415000
1!
1&
08
0E
0R
0>
0K
0X
1T
1G
1:
#420000
0!
0&
18
1E
1R
1>
1K
1X
0T
0G
0:
#425000
1!
1&
08
0E
0R
0>
0K
0X
1T
1G
1:
#430000
0!
0&
18
1E
1R
1>
1K
1X
0T
0G
0:
#435000
1!
1&
08
0E
0R
0>
0K
0X
1T
1G
1:
#440000
0!
0&
18
1E
1R
1>
1K
1X
0T
0G
0:
#445000
1!
1&
08
0E
0R
0>
0K
0X
1T
1G
1:
#450000
1"
0!
1'
0&
18
1E
1R
07
1>
1K
1X
0T
0G
09
1;
0<
#455000
1!
1&
08
0E
0R
0=
0K
0X
1T
1G
19
15
1,
1?
06
0D
0-
#460000
0!
0&
18
1E
1R
1=
1K
1X
0T
0F
09
1H
0I
#465000
1!
1&
08
0E
0R
0=
0J
0X
1T
1F
19
1B
1.
1L
0C
0Q
1+
0/
1*
1%
1Y
0h
0u
0$!
01!
0>!
0K!
0n
0z
0*!
07!
0D!
0Q!
1M!
1@!
13!
1&!
1v
1j
1r
1f
b11 [
b11 Z
0e
1^
b0 \
0s
b11 )
b11 $
b10 [
b10 Z
0]
0o
b100 \
b101 \
1t
b10 )
b10 $
0^
b111 \
1b
1|
0#!
0g
1o
b11 \
0t
0|
1#!
#470000
0!
0&
18
1E
1R
1=
1J
1X
0S
0F
09
1U
0V
#475000
1!
1&
08
0E
0R
0=
0J
0W
1S
1F
19
1O
10
0P
01
0+
0*
0%
0Y
1h
1u
1$!
11!
1>!
1K!
1n
1z
1*!
17!
1D!
1Q!
0M!
0@!
03!
0&!
0v
0i
1k
0l
#480000
0!
0&
18
1E
1R
1=
1J
1W
0S
0F
09
#485000
1!
1&
08
0E
0R
0=
0J
0W
1S
1F
19
#490000
0!
0&
18
1E
1R
1=
1J
1W
0S
0F
09
#495000
1!
1&
08
0E
0R
0=
0J
0W
1S
1F
19
#500000
0!
0&
18
1E
1R
1=
1J
1W
0S
0F
09
#505000
1!
1&
08
0E
0R
0=
0J
0W
1S
1F
19
#510000
0!
0&
18
1E
1R
1=
1J
1W
0S
0F
09
#515000
1!
1&
08
0E
0R
0=
0J
0W
1S
1F
19
#520000
0!
0&
18
1E
1R
1=
1J
1W
0S
0F
09
#525000
1!
1&
08
0E
0R
0=
0J
0W
1S
1F
19
#530000
0!
0&
18
1E
1R
1=
1J
1W
0S
0F
09
#535000
1!
1&
08
0E
0R
0=
0J
0W
1S
1F
19
#540000
0!
0&
18
1E
1R
1=
1J
1W
0S
0F
09
#545000
1!
1&
08
0E
0R
0=
0J
0W
1S
1F
19
#550000
0"
0!
0'
0&
18
1E
1R
17
1=
1J
1W
0S
0F
0:
1<
0;
#555000
1!
1&
08
0E
0R
0>
0J
0W
1S
1F
1:
16
1-
05
0,
0?
1D
#560000
0!
0&
18
1E
1R
1>
1J
1W
0S
0G
0:
1I
0H
#565000
1!
1&
08
0E
0R
0>
0K
0W
1S
1G
1:
1C
1/
0B
0.
0L
1Q
#570000
0!
0&
18
1E
1R
1>
1K
1W
0T
0G
0:
1V
0U
#575000
1!
1&
08
0E
0R
0>
0K
0X
1T
1G
1:
1P
11
0O
00
#580000
0!
0&
18
1E
1R
1>
1K
1X
0T
0G
0:
#585000
1!
1&
08
0E
0R
0>
0K
0X
1T
1G
1:
#590000
0!
0&
18
1E
1R
1>
1K
1X
0T
0G
0:
#595000
1!
1&
08
0E
0R
0>
0K
0X
1T
1G
1:
#600000
0!
0&
18
1E
1R
1>
1K
1X
0T
0G
0:
#605000
1!
1&
08
0E
0R
0>
0K
0X
1T
1G
1:
#610000
0!
0&
18
1E
1R
1>
1K
1X
0T
0G
0:
#615000
1!
1&
08
0E
0R
0>
0K
0X
1T
1G
1:
#620000
0!
0&
18
1E
1R
1>
1K
1X
0T
0G
0:
#625000
1!
1&
08
0E
0R
0>
0K
0X
1T
1G
1:
#630000
0!
0&
18
1E
1R
1>
1K
1X
0T
0G
0:
#635000
1!
1&
08
0E
0R
0>
0K
0X
1T
1G
1:
#640000
0!
0&
18
1E
1R
1>
1K
1X
0T
0G
0:
#645000
1!
1&
08
0E
0R
0>
0K
0X
1T
1G
1:
#650000
0!
0&
18
1E
1R
1>
1K
1X
0T
0G
0:
#655000
1!
1&
08
0E
0R
0>
0K
0X
1T
1G
1:
#660000
0!
0&
18
1E
1R
1>
1K
1X
0T
0G
0:
#665000
1!
1&
08
0E
0R
0>
0K
0X
1T
1G
1:
#670000
0!
0&
18
1E
1R
1>
1K
1X
0T
0G
0:
#675000
1!
1&
08
0E
0R
0>
0K
0X
1T
1G
1:
#680000
0!
0&
18
1E
1R
1>
1K
1X
0T
0G
0:
#685000
1!
1&
08
0E
0R
0>
0K
0X
1T
1G
1:
#690000
0!
0&
18
1E
1R
1>
1K
1X
0T
0G
0:
#695000
1!
1&
08
0E
0R
0>
0K
0X
1T
1G
1:
#700000
0!
0&
18
1E
1R
1>
1K
1X
0T
0G
0:
#705000
1!
1&
08
0E
0R
0>
0K
0X
1T
1G
1:
#710000
0!
0&
18
1E
1R
1>
1K
1X
0T
0G
0:
#715000
1!
1&
08
0E
0R
0>
0K
0X
1T
1G
1:
#720000
0!
0&
18
1E
1R
1>
1K
1X
0T
0G
0:
#725000
1!
1&
08
0E
0R
0>
0K
0X
1T
1G
1:
#730000
0!
0&
18
1E
1R
1>
1K
1X
0T
0G
0:
#735000
1!
1&
08
0E
0R
0>
0K
0X
1T
1G
1:
#740000
0!
0&
18
1E
1R
1>
1K
1X
0T
0G
0:
#745000
1!
1&
08
0E
0R
0>
0K
0X
1T
1G
1:
#750000
1"
0!
1'
0&
18
1E
1R
07
1>
1K
1X
0T
0G
09
1;
0<
#755000
1!
1&
08
0E
0R
0=
0K
0X
1T
1G
19
15
1,
1?
06
0D
0-
#760000
0!
0&
18
1E
1R
1=
1K
1X
0T
0F
09
1H
0I
#765000
1!
1&
08
0E
0R
0=
0J
0X
1T
1F
19
1B
1.
1L
0C
0Q
1+
0/
1*
1%
1Y
0h
0u
0$!
01!
0>!
0K!
0m
0z
0*!
07!
0D!
0Q!
1M!
1@!
13!
1&!
1v
1i
1e
b11 [
b11 Z
1]
b10 \
0f
b11 )
b11 $
1^
b0 \
0b
1g
0o
b100 \
1t
1|
0#!
#770000
0!
0&
18
1E
1R
1=
1J
1X
0S
0F
09
1U
0V
#775000
1!
1&
08
0E
0R
0=
0J
0W
1S
1F
19
1O
10
0P
01
0+
0*
0%
0Y
1h
1u
1$!
11!
1>!
1K!
1m
1z
1*!
17!
1D!
1Q!
0M!
0@!
03!
0%!
0w
0j
1l
1y
1'!
0(!
0x
0k
#780000
0!
0&
18
1E
1R
1=
1J
1W
0S
0F
09
#785000
1!
1&
08
0E
0R
0=
0J
0W
1S
1F
19
#790000
0!
0&
18
1E
1R
1=
1J
1W
0S
0F
09
#795000
1!
1&
08
0E
0R
0=
0J
0W
1S
1F
19
#800000
0!
0&
18
1E
1R
1=
1J
1W
0S
0F
09
#805000
1!
1&
08
0E
0R
0=
0J
0W
1S
1F
19
#810000
0!
0&
18
1E
1R
1=
1J
1W
0S
0F
09
#815000
1!
1&
08
0E
0R
0=
0J
0W
1S
1F
19
#820000
0!
0&
18
1E
1R
1=
1J
1W
0S
0F
09
#825000
1!
1&
08
0E
0R
0=
0J
0W
1S
1F
19
#830000
0!
0&
18
1E
1R
1=
1J
1W
0S
0F
09
#835000
1!
1&
08
0E
0R
0=
0J
0W
1S
1F
19
#840000
0!
0&
18
1E
1R
1=
1J
1W
0S
0F
09
#845000
1!
1&
08
0E
0R
0=
0J
0W
1S
1F
19
#850000
0"
0!
0'
0&
18
1E
1R
17
1=
1J
1W
0S
0F
0:
1<
0;
#855000
1!
1&
08
0E
0R
0>
0J
0W
1S
1F
1:
16
1-
05
0,
0?
1D
#860000
0!
0&
18
1E
1R
1>
1J
1W
0S
0G
0:
1I
0H
#865000
1!
1&
08
0E
0R
0>
0K
0W
1S
1G
1:
1C
1/
0B
0.
0L
1Q
#870000
0!
0&
18
1E
1R
1>
1K
1W
0T
0G
0:
1V
0U
#875000
1!
1&
08
0E
0R
0>
0K
0X
1T
1G
1:
1P
11
0O
00
#880000
0!
0&
18
1E
1R
1>
1K
1X
0T
0G
0:
#885000
1!
1&
08
0E
0R
0>
0K
0X
1T
1G
1:
#890000
0!
0&
18
1E
1R
1>
1K
1X
0T
0G
0:
#895000
1!
1&
08
0E
0R
0>
0K
0X
1T
1G
1:
#900000
0!
0&
18
1E
1R
1>
1K
1X
0T
0G
0:
#905000
1!
1&
08
0E
0R
0>
0K
0X
1T
1G
1:
#910000
0!
0&
18
1E
1R
1>
1K
1X
0T
0G
0:
#915000
1!
1&
08
0E
0R
0>
0K
0X
1T
1G
1:
#920000
0!
0&
18
1E
1R
1>
1K
1X
0T
0G
0:
#925000
1!
1&
08
0E
0R
0>
0K
0X
1T
1G
1:
#930000
0!
0&
18
1E
1R
1>
1K
1X
0T
0G
0:
#935000
1!
1&
08
0E
0R
0>
0K
0X
1T
1G
1:
#940000
0!
0&
18
1E
1R
1>
1K
1X
0T
0G
0:
#945000
1!
1&
08
0E
0R
0>
0K
0X
1T
1G
1:
#950000
0!
0&
18
1E
1R
1>
1K
1X
0T
0G
0:
#955000
1!
1&
08
0E
0R
0>
0K
0X
1T
1G
1:
#960000
0!
0&
18
1E
1R
1>
1K
1X
0T
0G
0:
#965000
1!
1&
08
0E
0R
0>
0K
0X
1T
1G
1:
#970000
0!
0&
18
1E
1R
1>
1K
1X
0T
0G
0:
#975000
1!
1&
08
0E
0R
0>
0K
0X
1T
1G
1:
#980000
0!
0&
18
1E
1R
1>
1K
1X
0T
0G
0:
#985000
1!
1&
08
0E
0R
0>
0K
0X
1T
1G
1:
#990000
0!
0&
18
1E
1R
1>
1K
1X
0T
0G
0:
#995000
1!
1&
08
0E
0R
0>
0K
0X
1T
1G
1:
#1000000
0!
0&
18
1E
1R
1>
1K
1X
0T
0G
0:
#1005000
1!
1&
08
0E
0R
0>
0K
0X
1T
1G
1:
#1010000
0!
0&
18
1E
1R
1>
1K
1X
0T
0G
0:
#1015000
1!
1&
08
0E
0R
0>
0K
0X
1T
1G
1:
#1020000
0!
0&
18
1E
1R
1>
1K
1X
0T
0G
0:
#1025000
1!
1&
08
0E
0R
0>
0K
0X
1T
1G
1:
#1030000
0!
0&
18
1E
1R
1>
1K
1X
0T
0G
0:
#1035000
1!
1&
08
0E
0R
0>
0K
0X
1T
1G
1:
#1040000
0!
0&
18
1E
1R
1>
1K
1X
0T
0G
0:
#1045000
1!
1&
08
0E
0R
0>
0K
0X
1T
1G
1:
#1050000
1"
0!
1'
0&
18
1E
1R
07
1>
1K
1X
0T
0G
09
1;
0<
#1055000
1!
1&
08
0E
0R
0=
0K
0X
1T
1G
19
15
1,
1?
06
0D
0-
#1060000
0!
0&
18
1E
1R
1=
1K
1X
0T
0F
09
1H
0I
#1065000
1!
1&
08
0E
0R
0=
0J
0X
1T
1F
19
1B
1.
1L
0C
0Q
1+
0/
1*
1%
1Y
0h
0u
0$!
01!
0>!
0K!
0n
0{
0)!
07!
0D!
0Q!
1M!
1@!
13!
1%!
1w
1j
1!!
1s
1f
b111 [
b111 Z
0e
0r
1_
b0 \
0"!
b111 )
b111 $
b101 [
b100 [
b100 Z
0]
0|
b1000 \
0^
b1010 \
b1011 \
1#!
b100 )
b100 $
b1001 \
1b
1o
1+!
0_
b1101 \
00!
0t
0g
0o
1|
0#!
1t
b101 \
0+!
10!
#1070000
0!
0&
18
1E
1R
1=
1J
1X
0S
0F
09
1U
0V
#1075000
1!
1&
08
0E
0R
0=
0J
0W
1S
1F
19
1O
10
0P
01
0+
0*
0%
0Y
1h
1u
1$!
11!
1>!
1K!
1n
1{
1)!
17!
1D!
1Q!
0M!
0@!
03!
0%!
0w
0i
1k
0l
#1080000
0!
0&
18
1E
1R
1=
1J
1W
0S
0F
09
#1085000
1!
1&
08
0E
0R
0=
0J
0W
1S
1F
19
#1090000
0!
0&
18
1E
1R
1=
1J
1W
0S
0F
09
#1095000
1!
1&
08
0E
0R
0=
0J
0W
1S
1F
19
#1100000
0!
0&
18
1E
1R
1=
1J
1W
0S
0F
09
#1105000
1!
1&
08
0E
0R
0=
0J
0W
1S
1F
19
#1110000
0!
0&
18
1E
1R
1=
1J
1W
0S
0F
09
#1115000
1!
1&
08
0E
0R
0=
0J
0W
1S
1F
19
#1120000
0!
0&
18
1E
1R
1=
1J
1W
0S
0F
09
#1125000
1!
1&
08
0E
0R
0=
0J
0W
1S
1F
19
#1130000
0!
0&
18
1E
1R
1=
1J
1W
0S
0F
09
#1135000
1!
1&
08
0E
0R
0=
0J
0W
1S
1F
19
#1140000
0!
0&
18
1E
1R
1=
1J
1W
0S
0F
09
#1145000
1!
1&
08
0E
0R
0=
0J
0W
1S
1F
19
#1150000
0"
0!
0'
0&
18
1E
1R
17
1=
1J
1W
0S
0F
0:
1<
0;
#1155000
1!
1&
08
0E
0R
0>
0J
0W
1S
1F
1:
16
1-
05
0,
0?
1D
#1160000
0!
0&
18
1E
1R
1>
1J
1W
0S
0G
0:
1I
0H
#1165000
1!
1&
08
0E
0R
0>
0K
0W
1S
1G
1:
1C
1/
0B
0.
0L
1Q
#1170000
0!
0&
18
1E
1R
1>
1K
1W
0T
0G
0:
1V
0U
#1175000
1!
1&
08
0E
0R
0>
0K
0X
1T
1G
1:
1P
11
0O
00
#1180000
0!
0&
18
1E
1R
1>
1K
1X
0T
0G
0:
#1185000
1!
1&
08
0E
0R
0>
0K
0X
1T
1G
1:
#1190000
0!
0&
18
1E
1R
1>
1K
1X
0T
0G
0:
#1195000
1!
1&
08
0E
0R
0>
0K
0X
1T
1G
1:
#1200000
0!
0&
18
1E
1R
1>
1K
1X
0T
0G
0:
#1205000
1!
1&
08
0E
0R
0>
0K
0X
1T
1G
1:
#1210000
0!
0&
18
1E
1R
1>
1K
1X
0T
0G
0:
#1215000
1!
1&
08
0E
0R
0>
0K
0X
1T
1G
1:
#1220000
0!
0&
18
1E
1R
1>
1K
1X
0T
0G
0:
#1225000
1!
1&
08
0E
0R
0>
0K
0X
1T
1G
1:
#1230000
0!
0&
18
1E
1R
1>
1K
1X
0T
0G
0:
#1235000
1!
1&
08
0E
0R
0>
0K
0X
1T
1G
1:
#1240000
0!
0&
18
1E
1R
1>
1K
1X
0T
0G
0:
#1245000
1!
1&
08
0E
0R
0>
0K
0X
1T
1G
1:
#1250000
0!
0&
18
1E
1R
1>
1K
1X
0T
0G
0:
#1255000
1!
1&
08
0E
0R
0>
0K
0X
1T
1G
1:
#1260000
0!
0&
18
1E
1R
1>
1K
1X
0T
0G
0:
#1265000
1!
1&
08
0E
0R
0>
0K
0X
1T
1G
1:
#1270000
0!
0&
18
1E
1R
1>
1K
1X
0T
0G
0:
#1275000
1!
1&
08
0E
0R
0>
0K
0X
1T
1G
1:
#1280000
0!
0&
18
1E
1R
1>
1K
1X
0T
0G
0:
#1285000
1!
1&
08
0E
0R
0>
0K
0X
1T
1G
1:
#1290000
0!
0&
18
1E
1R
1>
1K
1X
0T
0G
0:
#1295000
1!
1&
08
0E
0R
0>
0K
0X
1T
1G
1:
#1300000
0!
0&
18
1E
1R
1>
1K
1X
0T
0G
0:
#1305000
1!
1&
08
0E
0R
0>
0K
0X
1T
1G
1:
#1310000
0!
0&
18
1E
1R
1>
1K
1X
0T
0G
0:
#1315000
1!
1&
08
0E
0R
0>
0K
0X
1T
1G
1:
#1320000
0!
0&
18
1E
1R
1>
1K
1X
0T
0G
0:
#1325000
1!
1&
08
0E
0R
0>
0K
0X
1T
1G
1:
#1330000
0!
0&
18
1E
1R
1>
1K
1X
0T
0G
0:
#1335000
1!
1&
08
0E
0R
0>
0K
0X
1T
1G
1:
#1340000
0!
0&
18
1E
1R
1>
1K
1X
0T
0G
0:
#1345000
1!
1&
08
0E
0R
0>
0K
0X
1T
1G
1:
#1350000
1"
0!
1'
0&
18
1E
1R
07
1>
1K
1X
0T
0G
09
1;
0<
#1355000
1!
1&
08
0E
0R
0=
0K
0X
1T
1G
19
15
1,
1?
06
0D
0-
#1360000
0!
0&
18
1E
1R
1=
1K
1X
0T
0F
09
1H
0I
#1365000
1!
1&
08
0E
0R
0=
0J
0X
1T
1F
19
1B
1.
1L
0C
0Q
1+
0/
1*
1%
1Y
0h
0u
0$!
01!
0>!
0K!
0m
0{
0)!
07!
0D!
0Q!
1M!
1@!
13!
1%!
1w
1i
1e
b101 [
b101 Z
1]
b100 \
0f
b101 )
b101 $
b110 \
0b
1g
1o
0t
#1370000
0!
0&
18
1E
1R
1=
1J
1X
0S
0F
09
1U
0V
#1375000
1!
1&
08
0E
0R
0=
0J
0W
1S
1F
19
1O
10
0P
01
0+
0*
0%
0Y
1h
1u
1$!
11!
1>!
1K!
1m
1{
1)!
17!
1D!
1Q!
0M!
0@!
03!
0%!
0v
0j
1l
1x
0y
0k
