laboratorio1/problema3/simulation/modelsim/contador_top.vcd
$date
	Fri Aug 22 01:04:52 2025
$end
$version
	ModelSim Version 2020.1
$end
$timescale
	1ps
$end

$scope module tb_contador_top $end
$var reg 1 ! clk $end
$var reg 1 " btn_increment $end
$var reg 1 # switch_reset $end
$var reg 6 $ count [5:0] $end
$var integer 32 % i $end
$var reg 6 & count_prev [5:0] $end

$scope module dut $end
$var wire 1 ' clk $end
$var wire 1 ( btn_increment $end
$var wire 1 ) switch_reset $end
$var reg 6 * count [5:0] $end
$var reg 1 + btn_clean $end

$scope module debouncer $end
$var wire 1 ' clk $end
$var wire 1 ( btn_raw $end
$var wire 1 ) reset $end
$var reg 1 , btn_pulse $end
$var reg 1 - q0 $end
$var reg 1 . nq0 $end
$var reg 1 / q1 $end
$var reg 1 0 nq1 $end
$var reg 1 1 q2 $end
$var reg 1 2 nq2 $end
$var reg 1 3 reset_n $end

$scope module ff0 $end
$var wire 1 ( D $end
$var wire 1 ' CLK $end
$var wire 1 4 PRE $end
$var wire 1 5 CLR $end
$var reg 1 6 Q $end
$var reg 1 7 nQ $end
$var reg 1 8 nD $end
$var reg 1 9 CLK_n $end
$var reg 1 : Sm $end
$var reg 1 ; Rm $end
$var reg 1 < Qm $end
$var reg 1 = nQm $end
$var reg 1 > Ss $end
$var reg 1 ? Rs $end
$upscope $end

$scope module ff1 $end
$var wire 1 @ D $end
$var wire 1 ' CLK $end
$var wire 1 A PRE $end
$var wire 1 B CLR $end
$var reg 1 C Q $end
$var reg 1 D nQ $end
$var reg 1 E nD $end
$var reg 1 F CLK_n $end
$var reg 1 G Sm $end
$var reg 1 H Rm $end
$var reg 1 I Qm $end
$var reg 1 J nQm $end
$var reg 1 K Ss $end
$var reg 1 L Rs $end
$upscope $end

$scope module ff2 $end
$var wire 1 M D $end
$var wire 1 ' CLK $end
$var wire 1 N PRE $end
$var wire 1 O CLR $end
$var reg 1 P Q $end
$var reg 1 Q nQ $end
$var reg 1 R nD $end
$var reg 1 S CLK_n $end
$var reg 1 T Sm $end
$var reg 1 U Rm $end
$var reg 1 V Qm $end
$var reg 1 W nQm $end
$var reg 1 X Ss $end
$var reg 1 Y Rs $end
$upscope $end
$upscope $end

$scope module counter $end
$var wire 1 Z btn_clk $end
$var wire 1 ) reset $end
$var reg 6 [ count [5:0] $end
$var reg 6 \ next_count [5:0] $end
$var reg 6 ] current_count [5:0] $end
$var reg 1 ^ carry0 $end
$var reg 1 _ carry1 $end
$var reg 1 ` carry2 $end
$var reg 1 a carry3 $end
$var reg 1 b carry4 $end

$scope module ff0 $end
$var wire 1 c D $end
$var wire 1 Z CLK $end
$var wire 1 d PRE $end
$var wire 1 e CLR $end
$var reg 1 f Q $end
$var reg 1 g nQ $end
$var reg 1 h nD $end
$var reg 1 i CLK_n $end
$var reg 1 j Sm $end
$var reg 1 k Rm $end
$var reg 1 l Qm $end
$var reg 1 m nQm $end
$var reg 1 n Ss $end
$var reg 1 o Rs $end
$upscope $end

$scope module ff1 $end
$var wire 1 p D $end
$var wire 1 Z CLK $end
$var wire 1 q PRE $end
$var wire 1 r CLR $end
$var reg 1 s Q $end
$var reg 1 t nQ $end
$var reg 1 u nD $end
$var reg 1 v CLK_n $end
$var reg 1 w Sm $end
$var reg 1 x Rm $end
$var reg 1 y Qm $end
$var reg 1 z nQm $end
$var reg 1 { Ss $end
$var reg 1 | Rs $end
$upscope $end

$scope module ff2 $end
$var wire 1 } D $end
$var wire 1 Z CLK $end
$var wire 1 ~ PRE $end
$var wire 1 !! CLR $end
$var reg 1 "! Q $end
$var reg 1 #! nQ $end
$var reg 1 $! nD $end
$var reg 1 %! CLK_n $end
$var reg 1 &! Sm $end
$var reg 1 '! Rm $end
$var reg 1 (! Qm $end
$var reg 1 )! nQm $end
$var reg 1 *! Ss $end
$var reg 1 +! Rs $end
$upscope $end

$scope module ff3 $end
$var wire 1 ,! D $end
$var wire 1 Z CLK $end
$var wire 1 -! PRE $end
$var wire 1 .! CLR $end
$var reg 1 /! Q $end
$var reg 1 0! nQ $end
$var reg 1 1! nD $end
$var reg 1 2! CLK_n $end
$var reg 1 3! Sm $end
$var reg 1 4! Rm $end
$var reg 1 5! Qm $end
$var reg 1 6! nQm $end
$var reg 1 7! Ss $end
$var reg 1 8! Rs $end
$upscope $end

$scope module ff4 $end
$var wire 1 9! D $end
$var wire 1 Z CLK $end
$var wire 1 :! PRE $end
$var wire 1 ;! CLR $end
$var reg 1 <! Q $end
$var reg 1 =! nQ $end
$var reg 1 >! nD $end
$var reg 1 ?! CLK_n $end
$var reg 1 @! Sm $end
$var reg 1 A! Rm $end
$var reg 1 B! Qm $end
$var reg 1 C! nQm $end
$var reg 1 D! Ss $end
$var reg 1 E! Rs $end
$upscope $end

$scope module ff5 $end
$var wire 1 F! D $end
$var wire 1 Z CLK $end
$var wire 1 G! PRE $end
$var wire 1 H! CLR $end
$var reg 1 I! Q $end
$var reg 1 J! nQ $end
$var reg 1 K! nD $end
$var reg 1 L! CLK_n $end
$var reg 1 M! Sm $end
$var reg 1 N! Rm $end
$var reg 1 O! Qm $end
$var reg 1 P! nQm $end
$var reg 1 Q! Ss $end
$var reg 1 R! Rs $end
$upscope $end
$upscope $end
$upscope $end
$upscope $end
$enddefinitions $end
#0
$dumpvars
0!
0"
1#
b0 $
b0 *
0+
0,
0-
1.
0/
10
01
12
03
06
17
18
19
1:
0;
0<
1=
1>
1?
0C
1D
1E
1F
1G
0H
0I
1J
1K
1L
0P
1Q
1R
1S
1T
0U
0V
1W
1X
1Y
b0 [
b1 \
b0 ]
0^
0_
0`
0a
0b
0f
1g
0h
1i
0j
1k
1l
1m
1n
1o
0s
1t
1u
1v
1w
0x
0y
1z
1{
1|
0"!
1#!
1$!
1%!
1&!
0'!
0(!
1)!
1*!
1+!
0/!
10!
11!
12!
13!
04!
05!
16!
17!
18!
0<!
1=!
1>!
1?!
1@!
0A!
0B!
1C!
1D!
1E!
0I!
1J!
1K!
1L!
1M!
0N!
0O!
1P!
1Q!
1R!
bx &
bx %
0'
0(
1)
1N
1A
14
05
0@
0B
0M
0O
0Z
0H!
1G!
0;!
1:!
0.!
1-!
0!!
1~
0r
1q
0e
1d
1c
0p
0}
0,!
09!
0F!
$end
#10000
1!
1'
09
0F
0S
0?
0L
0Y
1U
1H
1;
#20000
0!
0'
19
1F
1S
1?
1L
1Y
0U
0H
0;
#30000
1!
1'
09
0F
0S
0?
0L
0Y
1U
1H
1;
#40000
0!
0'
19
1F
1S
1?
1L
1Y
0U
0H
0;
#50000
1!
1'
09
0F
0S
0?
0L
0Y
1U
1H
1;
#60000
0!
0'
19
1F
1S
1?
1L
1Y
0U
0H
0;
#70000
1!
1'
09
0F
0S
0?
0L
0Y
1U
1H
1;
#80000
0!
0'
19
1F
1S
1?
1L
1Y
0U
0H
0;
#90000
1!
1'
09
0F
0S
0?
0L
0Y
1U
1H
1;
#100000
0#
0!
0)
0'
1H!
1;!
1.!
1!!
1r
1e
19
1F
1S
0m
1?
1L
1Y
13
1O
1B
15
0U
0H
0;
#110000
1!
1'
09
0F
0S
0?
0L
0Y
1U
1H
1;
b0 &
#120000
0!
0'
19
1F
1S
1?
1L
1Y
0U
0H
0;
#130000
1!
1'
09
0F
0S
0?
0L
0Y
1U
1H
1;
#140000
0!
0'
19
1F
1S
1?
1L
1Y
0U
0H
0;
#150000
1!
1'
09
0F
0S
0?
0L
0Y
1U
1H
1;
#160000
0!
0'
19
1F
1S
1?
1L
1Y
0U
0H
0;
#170000
1!
1'
09
0F
0S
0?
0L
0Y
1U
1H
1;
#180000
0!
0'
19
1F
1S
1?
1L
1Y
0U
0H
0;
#190000
1!
1'
09
0F
0S
0?
0L
0Y
1U
1H
1;
#200000
0!
0'
19
1F
1S
1?
1L
1Y
0U
0H
0;
#210000
1!
1'
09
0F
0S
0?
0L
0Y
1U
1H
1;
#220000
0!
0'
19
1F
1S
1?
1L
1Y
0U
0H
0;
#230000
1!
1'
09
0F
0S
0?
0L
0Y
1U
1H
1;
#240000
0!
0'
19
1F
1S
1?
1L
1Y
0U
0H
0;
#250000
1!
1'
09
0F
0S
0?
0L
0Y
1U
1H
1;
#260000
0!
0'
19
1F
1S
1?
1L
1Y
0U
0H
0;
#270000
1!
1'
09
0F
0S
0?
0L
0Y
1U
1H
1;
#280000
0!
0'
19
1F
1S
1?
1L
1Y
0U
0H
0;
#290000
1!
1'
09
0F
0S
0?
0L
0Y
1U
1H
1;
#300000
0!
0'
19
1F
1S
1?
1L
1Y
0U
0H
0;
#310000
1!
1'
09
0F
0S
0?
0L
0Y
1U
1H
1;
#320000
0!
0'
19
1F
1S
1?
1L
1Y
0U
0H
0;
#330000
1!
1'
09
0F
0S
0?
0L
0Y
1U
1H
1;
#340000
0!
0'
19
1F
1S
1?
1L
1Y
0U
0H
0;
#350000
1!
1'
09
0F
0S
0?
0L
0Y
1U
1H
1;
#360000
0!
0'
19
1F
1S
1?
1L
1Y
0U
0H
0;
#370000
1!
1'
09
0F
0S
0?
0L
0Y
1U
1H
1;
#380000
0!
0'
19
1F
1S
1?
1L
1Y
0U
0H
0;
#390000
1!
1'
09
0F
0S
0?
0L
0Y
1U
1H
1;
#400000
b1 %
1"
0!
1(
0'
19
1F
1S
08
1?
1L
1Y
0U
0H
0:
1<
0=
#410000
1!
1'
09
0F
0S
0>
0L
0Y
1U
1H
1:
16
1-
1@
07
0E
0.
#420000
0!
0'
19
1F
1S
1>
1L
1Y
0U
0G
0:
1I
0J
#430000
1!
1'
09
0F
0S
0>
0K
0Y
1U
1G
1:
1C
1/
1M
0D
0R
1,
00
1+
1Z
0i
0v
0%!
02!
0?!
0L!
0n
0|
0+!
08!
0E!
0R!
1N!
1A!
14!
1'!
1x
1j
1f
b1 ]
b1 [
1^
b0 \
0g
b1 *
b1 $
b10 \
0c
1h
1p
0u
b1 &
#440000
0!
0'
19
1F
1S
1>
1K
1Y
0T
0G
0:
1V
0W
#450000
0"
1!
0(
1'
09
0F
0S
18
0>
0K
0X
1:
1T
1G
1P
11
0Q
02
0,
0+
0Z
1i
1v
1%!
12!
1?!
1L!
1n
1|
1+!
18!
1E!
1R!
0N!
0A!
04!
0'!
0w
0k
1m
1y
0z
0l
#460000
0!
0'
19
1F
1S
1>
1K
1X
0T
0G
0;
1=
0<
#470000
1!
1'
09
0F
0S
0?
0K
0X
1T
1G
1;
17
1.
06
0-
0@
1E
#480000
0!
0'
19
1F
1S
1?
1K
1X
0T
0H
0;
1J
0I
#490000
1!
1'
09
0F
0S
0?
0L
0X
1T
1H
1;
1D
10
0C
0/
0M
1R
#500000
0!
0'
19
1F
1S
1?
1L
1X
0U
0H
0;
1W
0V
#510000
1!
1'
09
0F
0S
0?
0L
0Y
1U
1H
1;
1Q
12
0P
01
#520000
0!
0'
19
1F
1S
1?
1L
1Y
0U
0H
0;
#530000
1!
1'
09
0F
0S
0?
0L
0Y
1U
1H
1;
#540000
0!
0'
19
1F
1S
1?
1L
1Y
0U
0H
0;
#550000
1!
1'
09
0F
0S
0?
0L
0Y
1U
1H
1;
#560000
0!
0'
19
1F
1S
1?
1L
1Y
0U
0H
0;
#570000
1!
1'
09
0F
0S
0?
0L
0Y
1U
1H
1;
#580000
0!
0'
19
1F
1S
1?
1L
1Y
0U
0H
0;
#590000
1!
1'
09
0F
0S
0?
0L
0Y
1U
1H
1;
#600000
0!
0'
19
1F
1S
1?
1L
1Y
0U
0H
0;
#610000
1!
1'
09
0F
0S
0?
0L
0Y
1U
1H
1;
#620000
0!
0'
19
1F
1S
1?
1L
1Y
0U
0H
0;
#630000
1!
1'
09
0F
0S
0?
0L
0Y
1U
1H
1;
#640000
0!
0'
19
1F
1S
1?
1L
1Y
0U
0H
0;
