laboratorio1/problema3/simulation/questa/contador_debug.vcd
$date
	Fri Aug 22 11:03:56 2025
$end
$version
	ModelSim Version 10.5b
$end
$timescale
	1ps
$end

$scope module tb_contador_top $end
$var reg 1 ! clk $end
$var reg 1 " btn_increment $end
$var reg 1 # switch_reset $end
$var reg 7 $ HEX0 [6:0] $end
$var reg 7 % HEX1 [6:0] $end
$var reg 1 & btn_clean $end

$scope begin pulses $end
$upscope $end

$scope module dut $end
$var wire 1 ' clk $end
$var wire 1 ( btn_increment $end
$var wire 1 ) switch_reset $end
$var reg 7 * HEX0 [6:0] $end
$var reg 7 + HEX1 [6:0] $end
$var reg 1 , btn_clean $end
$var reg 6 - count [5:0] $end
$var reg 4 . lower_4bits [3:0] $end
$var reg 4 / upper_2bits [3:0] $end

$scope module debouncer $end
$var wire 1 ' clk $end
$var wire 1 ( btn_raw $end
$var wire 1 ) reset $end
$var reg 1 0 btn_pulse $end
$var reg 1 1 q0 $end
$var reg 1 2 nq0 $end
$var reg 1 3 q1 $end
$var reg 1 4 nq1 $end
$var reg 1 5 q2 $end
$var reg 1 6 nq2 $end
$var reg 1 7 reset_n $end

$scope module ff0 $end
$var wire 1 ( D $end
$var wire 1 ' CLK $end
$var wire 1 8 PRE $end
$var wire 1 9 CLR $end
$var reg 1 : Q $end
$var reg 1 ; nQ $end
$var reg 1 < nD $end
$var reg 1 = CLK_n $end
$var reg 1 > Sm $end
$var reg 1 ? Rm $end
$var reg 1 @ Qm $end
$var reg 1 A nQm $end
$var reg 1 B Ss $end
$var reg 1 C Rs $end
$upscope $end

$scope module ff1 $end
$var wire 1 D D $end
$var wire 1 ' CLK $end
$var wire 1 E PRE $end
$var wire 1 F CLR $end
$var reg 1 G Q $end
$var reg 1 H nQ $end
$var reg 1 I nD $end
$var reg 1 J CLK_n $end
$var reg 1 K Sm $end
$var reg 1 L Rm $end
$var reg 1 M Qm $end
$var reg 1 N nQm $end
$var reg 1 O Ss $end
$var reg 1 P Rs $end
$upscope $end

$scope module ff2 $end
$var wire 1 Q D $end
$var wire 1 ' CLK $end
$var wire 1 R PRE $end
$var wire 1 S CLR $end
$var reg 1 T Q $end
$var reg 1 U nQ $end
$var reg 1 V nD $end
$var reg 1 W CLK_n $end
$var reg 1 X Sm $end
$var reg 1 Y Rm $end
$var reg 1 Z Qm $end
$var reg 1 [ nQm $end
$var reg 1 \ Ss $end
$var reg 1 ] Rs $end
$upscope $end
$upscope $end

$scope module counter $end
$var wire 1 ^ btn_clk $end
$var wire 1 ) reset $end
$var reg 6 _ count [5:0] $end
$var reg 6 ` current_count [5:0] $end
$var reg 6 a next_count [5:0] $end
$var reg 1 b c0 $end
$var reg 1 c c1 $end
$var reg 1 d c2 $end
$var reg 1 e c3 $end
$var reg 1 f c4 $end

$scope module ff0 $end
$var wire 1 g D $end
$var wire 1 ^ CLK $end
$var wire 1 h PRE $end
$var wire 1 i CLR $end
$var reg 1 j Q $end
$var reg 1 k nQ $end
$var reg 1 l nD $end
$var reg 1 m CLK_n $end
$var reg 1 n Sm $end
$var reg 1 o Rm $end
$var reg 1 p Qm $end
$var reg 1 q nQm $end
$var reg 1 r Ss $end
$var reg 1 s Rs $end
$upscope $end

$scope module ff1 $end
$var wire 1 t D $end
$var wire 1 ^ CLK $end
$var wire 1 u PRE $end
$var wire 1 v CLR $end
$var reg 1 w Q $end
$var reg 1 x nQ $end
$var reg 1 y nD $end
$var reg 1 z CLK_n $end
$var reg 1 { Sm $end
$var reg 1 | Rm $end
$var reg 1 } Qm $end
$var reg 1 ~ nQm $end
$var reg 1 !! Ss $end
$var reg 1 "! Rs $end
$upscope $end

$scope module ff2 $end
$var wire 1 #! D $end
$var wire 1 ^ CLK $end
$var wire 1 $! PRE $end
$var wire 1 %! CLR $end
$var reg 1 &! Q $end
$var reg 1 '! nQ $end
$var reg 1 (! nD $end
$var reg 1 )! CLK_n $end
$var reg 1 *! Sm $end
$var reg 1 +! Rm $end
$var reg 1 ,! Qm $end
$var reg 1 -! nQm $end
$var reg 1 .! Ss $end
$var reg 1 /! Rs $end
$upscope $end

$scope module ff3 $end
$var wire 1 0! D $end
$var wire 1 ^ CLK $end
$var wire 1 1! PRE $end
$var wire 1 2! CLR $end
$var reg 1 3! Q $end
$var reg 1 4! nQ $end
$var reg 1 5! nD $end
$var reg 1 6! CLK_n $end
$var reg 1 7! Sm $end
$var reg 1 8! Rm $end
$var reg 1 9! Qm $end
$var reg 1 :! nQm $end
$var reg 1 ;! Ss $end
$var reg 1 <! Rs $end
$upscope $end

$scope module ff4 $end
$var wire 1 =! D $end
$var wire 1 ^ CLK $end
$var wire 1 >! PRE $end
$var wire 1 ?! CLR $end
$var reg 1 @! Q $end
$var reg 1 A! nQ $end
$var reg 1 B! nD $end
$var reg 1 C! CLK_n $end
$var reg 1 D! Sm $end
$var reg 1 E! Rm $end
$var reg 1 F! Qm $end
$var reg 1 G! nQm $end
$var reg 1 H! Ss $end
$var reg 1 I! Rs $end
$upscope $end

$scope module ff5 $end
$var wire 1 J! D $end
$var wire 1 ^ CLK $end
$var wire 1 K! PRE $end
$var wire 1 L! CLR $end
$var reg 1 M! Q $end
$var reg 1 N! nQ $end
$var reg 1 O! nD $end
$var reg 1 P! CLK_n $end
$var reg 1 Q! Sm $end
$var reg 1 R! Rm $end
$var reg 1 S! Qm $end
$var reg 1 T! nQm $end
$var reg 1 U! Ss $end
$var reg 1 V! Rs $end
$upscope $end
$upscope $end

$scope module display_right $end
$var wire 1 W! A0 $end
$var wire 1 X! A1 $end
$var wire 1 Y! A2 $end
$var wire 1 Z! A3 $end
$var wire 1 [! a $end
$var wire 1 \! b $end
$var wire 1 ]! c $end
$var wire 1 ^! d $end
$var wire 1 _! e $end
$var wire 1 `! f $end
$var wire 1 a! g $end
$upscope $end

$scope module display_left $end
$var wire 1 b! A0 $end
$var wire 1 c! A1 $end
$var wire 1 d! A2 $end
$var wire 1 e! A3 $end
$var wire 1 f! a $end
$var wire 1 g! b $end
$var wire 1 h! c $end
$var wire 1 i! d $end
$var wire 1 j! e $end
$var wire 1 k! f $end
$var wire 1 l! g $end
$upscope $end
$upscope $end
$upscope $end
$enddefinitions $end
#0
$dumpvars
0!
0"
1#
b1 $
b1 %
x&
b1 *
b1 +
0,
b0 -
b0 .
b0 /
00
01
12
03
14
05
16
07
0:
1;
1<
1=
1>
0?
0@
1A
1B
1C
0G
1H
1I
1J
1K
0L
0M
1N
1O
1P
0T
1U
1V
1W
1X
0Y
0Z
1[
1\
1]
b0 _
b0 `
b1 a
0b
0c
0d
0e
0f
0j
1k
0l
1m
0n
1o
1p
1q
1r
1s
0w
1x
1y
1z
1{
0|
0}
1~
1!!
1"!
0&!
1'!
1(!
1)!
1*!
0+!
0,!
1-!
1.!
1/!
03!
14!
15!
16!
17!
08!
09!
1:!
1;!
1<!
0@!
1A!
1B!
1C!
1D!
0E!
0F!
1G!
1H!
1I!
0M!
1N!
1O!
1P!
1Q!
0R!
0S!
1T!
1U!
1V!
0'
0(
1)
1R
1E
18
09
0D
0F
0Q
0S
0^
0L!
1K!
0?!
1>!
02!
11!
0%!
1$!
0v
1u
0i
1h
1g
0t
0#!
00!
0=!
0J!
0W!
0X!
0Y!
0Z!
0[!
0\!
0]!
0^!
0_!
0`!
1a!
0b!
0c!
0d!
0e!
0f!
0g!
0h!
0i!
0j!
0k!
1l!
$end
#5000
1!
1'
0=
0J
0W
0C
0P
0]
1Y
1L
1?
#10000
0!
0'
1=
1J
1W
1C
1P
1]
0Y
0L
0?
#15000
1!
1'
0=
0J
0W
0C
0P
0]
1Y
1L
1?
#20000
0!
0'
1=
1J
1W
1C
1P
1]
0Y
0L
0?
#25000
1!
1'
0=
0J
0W
0C
0P
0]
1Y
1L
1?
#30000
0!
0'
1=
1J
1W
1C
1P
1]
0Y
0L
0?
#35000
1!
1'
0=
0J
0W
0C
0P
0]
1Y
1L
1?
#40000
0!
0'
1=
1J
1W
1C
1P
1]
0Y
0L
0?
#45000
1!
1'
0=
0J
0W
0C
0P
0]
1Y
1L
1?
#50000
0#
0!
0)
0'
1L!
1?!
12!
1%!
1v
1i
1=
1J
1W
0q
1C
1P
1]
17
1S
1F
19
0Y
0L
0?
#55000
1!
1'
0=
0J
0W
0C
0P
0]
1Y
1L
1?
#60000
0!
0'
1=
1J
1W
1C
1P
1]
0Y
0L
0?
#65000
1!
1'
0=
0J
0W
0C
0P
0]
1Y
1L
1?
#70000
0!
0'
1=
1J
1W
1C
1P
1]
0Y
0L
0?
#75000
1!
1'
0=
0J
0W
0C
0P
0]
1Y
1L
1?
#80000
0!
0'
1=
1J
1W
1C
1P
1]
0Y
0L
0?
#85000
1!
1'
0=
0J
0W
0C
0P
0]
1Y
1L
1?
#90000
0!
0'
1=
1J
1W
1C
1P
1]
0Y
0L
0?
#95000
1!
1'
0=
0J
0W
0C
0P
0]
1Y
1L
1?
#100000
0!
0'
1=
1J
1W
1C
1P
1]
0Y
0L
0?
#105000
1!
1'
0=
0J
0W
0C
0P
0]
1Y
1L
1?
#110000
0!
0'
1=
1J
1W
1C
1P
1]
0Y
0L
0?
#115000
1!
1'
0=
0J
0W
0C
0P
0]
1Y
1L
1?
#120000
0!
0'
1=
1J
1W
1C
1P
1]
0Y
0L
0?
#125000
1!
1'
0=
0J
0W
0C
0P
0]
1Y
1L
1?
#130000
0!
0'
1=
1J
1W
1C
1P
1]
0Y
0L
0?
#135000
1!
1'
0=
0J
0W
0C
0P
0]
1Y
1L
1?
#140000
0!
0'
1=
1J
1W
1C
1P
1]
0Y
0L
0?
#145000
1!
1'
0=
0J
0W
0C
0P
0]
1Y
1L
1?
#150000
1"
0!
1(
0'
1=
1J
1W
0<
1C
1P
1]
0Y
0L
0>
1@
0A
#155000
1!
1'
0=
0J
0W
0B
0P
0]
1Y
1L
1>
1:
11
1D
0;
0I
02
#160000
0!
0'
1=
1J
1W
1B
1P
1]
0Y
0K
0>
1M
0N
#165000
1!
1'
0=
0J
0W
0B
0O
0]
1Y
1K
1>
1G
13
1Q
0H
0V
10
04
1,
1^
0m
0z
0)!
06!
0C!
0P!
0r
0"!
0/!
0<!
0I!
0V!
1R!
1E!
18!
1+!
1|
1n
1j
b1 `
b1 _
1b
b0 a
0k
b1 -
b1 .
b10 a
0g
1l
1W!
1[!
1^!
1_!
1`!
b11 *
b111 *
b1111 *
b1001111 *
1t
0y
b1001111 $
#170000
0!
0'
1=
1J
1W
1B
1O
1]
0X
0K
0>
1Z
0[
#175000
1!
1'
0=
0J
0W
0B
0O
0\
1X
1K
1>
1T
15
0U
06
00
0,
0^
1m
1z
1)!
16!
1C!
1P!
1r
1"!
1/!
1<!
1I!
1V!
0R!
0E!
08!
0+!
0{
0o
1q
1}
0~
0p
#180000
0!
0'
1=
1J
1W
1B
1O
1\
0X
0K
0>
#185000
1!
1'
0=
0J
0W
0B
0O
0\
1X
1K
1>
#190000
0!
0'
1=
1J
1W
1B
1O
1\
0X
0K
0>
#195000
1!
1'
0=
0J
0W
0B
0O
0\
1X
1K
1>
#200000
0!
0'
1=
1J
1W
1B
1O
1\
0X
0K
0>
#205000
1!
1'
0=
0J
0W
0B
0O
0\
1X
1K
1>
#210000
0!
0'
1=
1J
1W
1B
1O
1\
0X
0K
0>
#215000
1!
1'
0=
0J
0W
0B
0O
0\
1X
1K
1>
#220000
0!
0'
1=
1J
1W
1B
1O
1\
0X
0K
0>
#225000
1!
1'
0=
0J
0W
0B
0O
0\
1X
1K
1>
#230000
0!
0'
1=
1J
1W
1B
1O
1\
0X
0K
0>
#235000
1!
1'
0=
0J
0W
0B
0O
0\
1X
1K
1>
#240000
0!
0'
1=
1J
1W
1B
1O
1\
0X
0K
0>
#245000
1!
1'
0=
0J
0W
0B
0O
0\
1X
1K
1>
#250000
0"
0!
0(
0'
1=
1J
1W
1<
1B
1O
1\
0X
0K
0?
1A
0@
#255000
1!
1'
0=
0J
0W
0C
0O
0\
1X
1K
1?
1;
12
0:
01
0D
1I
#260000
0!
0'
1=
1J
1W
1C
1O
1\
0X
0L
0?
1N
0M
#265000
1!
1'
0=
0J
0W
0C
0P
0\
1X
1L
1?
1H
14
0G
03
0Q
1V
#270000
0!
0'
1=
1J
1W
1C
1P
1\
0Y
0L
0?
1[
0Z
#275000
1!
1'
0=
0J
0W
0C
0P
0]
1Y
1L
1?
1U
16
0T
05
#280000
0!
0'
1=
1J
1W
1C
1P
1]
0Y
0L
0?
#285000
1!
1'
0=
0J
0W
0C
0P
0]
1Y
1L
1?
#290000
0!
0'
1=
1J
1W
1C
1P
1]
0Y
0L
0?
#295000
1!
1'
0=
0J
0W
0C
0P
0]
1Y
1L
1?
#300000
0!
0'
1=
1J
1W
1C
1P
1]
0Y
0L
0?
#305000
1!
1'
0=
0J
0W
0C
0P
0]
1Y
1L
1?
#310000
0!
0'
1=
1J
1W
1C
1P
1]
0Y
0L
0?
#315000
1!
1'
0=
0J
0W
0C
0P
0]
1Y
1L
1?
#320000
0!
0'
1=
1J
1W
1C
1P
1]
0Y
0L
0?
#325000
1!
1'
0=
0J
0W
0C
0P
0]
1Y
1L
1?
#330000
0!
0'
1=
1J
1W
1C
1P
1]
0Y
0L
0?
#335000
1!
1'
0=
0J
0W
0C
0P
0]
1Y
1L
1?
#340000
0!
0'
1=
1J
1W
1C
1P
1]
0Y
0L
0?
#345000
1!
1'
0=
0J
0W
0C
0P
0]
1Y
1L
1?
#350000
0!
0'
1=
1J
1W
1C
1P
1]
0Y
0L
0?
#355000
1!
1'
0=
0J
0W
0C
0P
0]
1Y
1L
1?
#360000
0!
0'
1=
1J
1W
1C
1P
1]
0Y
0L
0?
#365000
1!
1'
0=
0J
0W
0C
0P
0]
1Y
1L
1?
#370000
0!
0'
1=
1J
1W
1C
1P
1]
0Y
0L
0?
#375000
1!
1'
0=
0J
0W
0C
0P
0]
1Y
1L
1?
#380000
0!
0'
1=
1J
1W
1C
1P
1]
0Y
0L
0?
#385000
1!
1'
0=
0J
0W
0C
0P
0]
1Y
1L
1?
#390000
0!
0'
1=
1J
1W
1C
1P
1]
0Y
0L
0?
#395000
1!
1'
0=
0J
0W
0C
0P
0]
1Y
1L
1?
#400000
0!
0'
1=
1J
1W
1C
1P
1]
0Y
0L
0?
#405000
1!
1'
0=
0J
0W
0C
0P
0]
1Y
1L
1?
#410000
0!
0'
1=
1J
1W
1C
1P
1]
0Y
0L
0?
#415000
1!
1'
0=
0J
0W
0C
0P
0]
1Y
1L
1?
#420000
0!
0'
1=
1J
1W
1C
1P
1]
0Y
0L
0?
#425000
1!
1'
0=
0J
0W
0C
0P
0]
1Y
1L
1?
#430000
0!
0'
1=
1J
1W
1C
1P
1]
0Y
0L
0?
#435000
1!
1'
0=
0J
0W
0C
0P
0]
1Y
1L
1?
#440000
0!
0'
1=
1J
1W
1C
1P
1]
0Y
0L
0?
#445000
1!
1'
0=
0J
0W
0C
0P
0]
1Y
1L
1?
#450000
1"
0!
1(
0'
1=
1J
1W
0<
1C
1P
1]
0Y
0L
0>
1@
0A
#455000
1!
1'
0=
0J
0W
0B
0P
0]
1Y
1L
1>
1:
11
1D
0;
0I
02
#460000
0!
0'
1=
1J
1W
1B
1P
1]
0Y
0K
0>
1M
0N
#465000
1!
1'
0=
0J
0W
0B
0O
0]
1Y
1K
1>
1G
13
1Q
0H
0V
10
04
1,
1^
0m
0z
0)!
06!
0C!
0P!
0s
0!!
0/!
0<!
0I!
0V!
1R!
1E!
18!
1+!
1{
1o
1w
1k
b11 `
b11 _
0j
1c
b0 a
0x
b11 -
b11 .
b10 `
b10 _
0b
0t
b100 a
b101 a
1y
b10 -
1X!
0[!
0^!
0a!
b1001110 *
b1000110 *
b110 *
b10 .
0c
b111 a
b110 $
1g
1#!
0(!
0l
0W!
1]!
0_!
b10 *
b10010 *
1t
b11 a
0y
b10010 $
0#!
1(!
#470000
0!
0'
1=
1J
1W
1B
1O
1]
0X
0K
0>
1Z
0[
#475000
1!
1'
0=
0J
0W
0B
0O
0\
1X
1K
1>
1T
15
0U
06
00
0,
0^
1m
1z
1)!
16!
1C!
1P!
1s
1!!
1/!
1<!
1I!
1V!
0R!
0E!
08!
0+!
0{
0n
1p
0q
#480000
0!
0'
1=
1J
1W
1B
1O
1\
0X
0K
0>
#485000
1!
1'
0=
0J
0W
0B
0O
0\
1X
1K
1>
#490000
0!
0'
1=
1J
1W
1B
1O
1\
0X
0K
0>
#495000
1!
1'
0=
0J
0W
0B
0O
0\
1X
1K
1>
#500000
0!
0'
1=
1J
1W
1B
1O
1\
0X
0K
0>
#505000
1!
1'
0=
0J
0W
0B
0O
0\
1X
1K
1>
#510000
0!
0'
1=
1J
1W
1B
1O
1\
0X
0K
0>
#515000
1!
1'
0=
0J
0W
0B
0O
0\
1X
1K
1>
#520000
0!
0'
1=
1J
1W
1B
1O
1\
0X
0K
0>
#525000
1!
1'
0=
0J
0W
0B
0O
0\
1X
1K
1>
#530000
0!
0'
1=
1J
1W
1B
1O
1\
0X
0K
0>
#535000
1!
1'
0=
0J
0W
0B
0O
0\
1X
1K
1>
#540000
0!
0'
1=
1J
1W
1B
1O
1\
0X
0K
0>
#545000
1!
1'
0=
0J
0W
0B
0O
0\
1X
1K
1>
#550000
0"
0!
0(
0'
1=
1J
1W
1<
1B
1O
1\
0X
0K
0?
1A
0@
#555000
1!
1'
0=
0J
0W
0C
0O
0\
1X
1K
1?
1;
12
0:
01
0D
1I
#560000
0!
0'
1=
1J
1W
1C
1O
1\
0X
0L
0?
1N
0M
#565000
1!
1'
0=
0J
0W
0C
0P
0\
1X
1L
1?
1H
14
0G
03
0Q
1V
#570000
0!
0'
1=
1J
1W
1C
1P
1\
0Y
0L
0?
1[
0Z
#575000
1!
1'
0=
0J
0W
0C
0P
0]
1Y
1L
1?
1U
16
0T
05
#580000
0!
0'
1=
1J
1W
1C
1P
1]
0Y
0L
0?
#585000
1!
1'
0=
0J
0W
0C
0P
0]
1Y
1L
1?
#590000
0!
0'
1=
1J
1W
1C
1P
1]
0Y
0L
0?
#595000
1!
1'
0=
0J
0W
0C
0P
0]
1Y
1L
1?
#600000
0!
0'
1=
1J
1W
1C
1P
1]
0Y
0L
0?
#605000
1!
1'
0=
0J
0W
0C
0P
0]
1Y
1L
1?
#610000
0!
0'
1=
1J
1W
1C
1P
1]
0Y
0L
0?
#615000
1!
1'
0=
0J
0W
0C
0P
0]
1Y
1L
1?
#620000
0!
0'
1=
1J
1W
1C
1P
1]
0Y
0L
0?
#625000
1!
1'
0=
0J
0W
0C
0P
0]
1Y
1L
1?
#630000
0!
0'
1=
1J
1W
1C
1P
1]
0Y
0L
0?
#635000
1!
1'
0=
0J
0W
0C
0P
0]
1Y
1L
1?
#640000
0!
0'
1=
1J
1W
1C
1P
1]
0Y
0L
0?
#645000
1!
1'
0=
0J
0W
0C
0P
0]
1Y
1L
1?
#650000
0!
0'
1=
1J
1W
1C
1P
1]
0Y
0L
0?
#655000
1!
1'
0=
0J
0W
0C
0P
0]
1Y
1L
1?
#660000
0!
0'
1=
1J
1W
1C
1P
1]
0Y
0L
0?
#665000
1!
1'
0=
0J
0W
0C
0P
0]
1Y
1L
1?
#670000
0!
0'
1=
1J
1W
1C
1P
1]
0Y
0L
0?
#675000
1!
1'
0=
0J
0W
0C
0P
0]
1Y
1L
1?
#680000
0!
0'
1=
1J
1W
1C
1P
1]
0Y
0L
0?
#685000
1!
1'
0=
0J
0W
0C
0P
0]
1Y
1L
1?
#690000
0!
0'
1=
1J
1W
1C
1P
1]
0Y
0L
0?
#695000
1!
1'
0=
0J
0W
0C
0P
0]
1Y
1L
1?
#700000
0!
0'
1=
1J
1W
1C
1P
1]
0Y
0L
0?
#705000
1!
1'
0=
0J
0W
0C
0P
0]
1Y
1L
1?
#710000
0!
0'
1=
1J
1W
1C
1P
1]
0Y
0L
0?
#715000
1!
1'
0=
0J
0W
0C
0P
0]
1Y
1L
1?
#720000
0!
0'
1=
1J
1W
1C
1P
1]
0Y
0L
0?
#725000
1!
1'
0=
0J
0W
0C
0P
0]
1Y
1L
1?
#730000
0!
0'
1=
1J
1W
1C
1P
1]
0Y
0L
0?
#735000
1!
1'
0=
0J
0W
0C
0P
0]
1Y
1L
1?
#740000
0!
0'
1=
1J
1W
1C
1P
1]
0Y
0L
0?
#745000
1!
1'
0=
0J
0W
0C
0P
0]
1Y
1L
1?
#750000
1"
0!
1(
0'
1=
1J
1W
0<
1C
1P
1]
0Y
0L
0>
1@
0A
#755000
1!
1'
0=
0J
0W
0B
0P
0]
1Y
1L
1>
1:
11
1D
0;
0I
02
#760000
0!
0'
1=
1J
1W
1B
1P
1]
0Y
0K
0>
1M
0N
#765000
1!
1'
0=
0J
0W
0B
0O
0]
1Y
1K
1>
1G
13
1Q
0H
0V
10
04
1,
1^
0m
0z
0)!
06!
0C!
0P!
0r
0!!
0/!
0<!
0I!
0V!
1R!
1E!
18!
1+!
1{
1n
1j
b11 `
b11 _
1b
b10 a
0k
b11 -
b11 .
1c
b0 a
0g
1l
1W!
0]!
1_!
b10110 *
b110 *
0t
b100 a
1y
b110 $
1#!
0(!
#770000
0!
0'
1=
1J
1W
1B
1O
1]
0X
0K
0>
1Z
0[
#775000
1!
1'
0=
0J
0W
0B
0O
0\
1X
1K
1>
1T
15
0U
06
00
0,
0^
1m
1z
1)!
16!
1C!
1P!
1r
1!!
1/!
1<!
1I!
1V!
0R!
0E!
08!
0*!
0|
0o
1q
1~
1,!
0-!
0}
0p
#780000
0!
0'
1=
1J
1W
1B
1O
1\
0X
0K
0>
#785000
1!
1'
0=
0J
0W
0B
0O
0\
1X
1K
1>
#790000
0!
0'
1=
1J
1W
1B
1O
1\
0X
0K
0>
#795000
1!
1'
0=
0J
0W
0B
0O
0\
1X
1K
1>
#800000
0!
0'
1=
1J
1W
1B
1O
1\
0X
0K
0>
#805000
1!
1'
0=
0J
0W
0B
0O
0\
1X
1K
1>
#810000
0!
0'
1=
1J
1W
1B
1O
1\
0X
0K
0>
#815000
1!
1'
0=
0J
0W
0B
0O
0\
1X
1K
1>
#820000
0!
0'
1=
1J
1W
1B
1O
1\
0X
0K
0>
#825000
1!
1'
0=
0J
0W
0B
0O
0\
1X
1K
1>
#830000
0!
0'
1=
1J
1W
1B
1O
1\
0X
0K
0>
#835000
1!
1'
0=
0J
0W
0B
0O
0\
1X
1K
1>
#840000
0!
0'
1=
1J
1W
1B
1O
1\
0X
0K
0>
#845000
1!
1'
0=
0J
0W
0B
0O
0\
1X
1K
1>
#850000
0"
0!
0(
0'
1=
1J
1W
1<
1B
1O
1\
0X
0K
0?
1A
0@
#855000
1!
1'
0=
0J
0W
0C
0O
0\
1X
1K
1?
1;
12
0:
01
0D
1I
#860000
0!
0'
1=
1J
1W
1C
1O
1\
0X
0L
0?
1N
0M
#865000
1!
1'
0=
0J
0W
0C
0P
0\
1X
1L
1?
1H
14
0G
03
0Q
1V
#870000
0!
0'
1=
1J
1W
1C
1P
1\
0Y
0L
0?
1[
0Z
#875000
1!
1'
0=
0J
0W
0C
0P
0]
1Y
1L
1?
1U
16
0T
05
#880000
0!
0'
1=
1J
1W
1C
1P
1]
0Y
0L
0?
#885000
1!
1'
0=
0J
0W
0C
0P
0]
1Y
1L
1?
#890000
0!
0'
1=
1J
1W
1C
1P
1]
0Y
0L
0?
#895000
1!
1'
0=
0J
0W
0C
0P
0]
1Y
1L
1?
#900000
0!
0'
1=
1J
1W
1C
1P
1]
0Y
0L
0?
#905000
1!
1'
0=
0J
0W
0C
0P
0]
1Y
1L
1?
#910000
0!
0'
1=
1J
1W
1C
1P
1]
0Y
0L
0?
#915000
1!
1'
0=
0J
0W
0C
0P
0]
1Y
1L
1?
#920000
0!
0'
1=
1J
1W
1C
1P
1]
0Y
0L
0?
#925000
1!
1'
0=
0J
0W
0C
0P
0]
1Y
1L
1?
#930000
0!
0'
1=
1J
1W
1C
1P
1]
0Y
0L
0?
#935000
1!
1'
0=
0J
0W
0C
0P
0]
1Y
1L
1?
#940000
0!
0'
1=
1J
1W
1C
1P
1]
0Y
0L
0?
#945000
1!
1'
0=
0J
0W
0C
0P
0]
1Y
1L
1?
#950000
0!
0'
1=
1J
1W
1C
1P
1]
0Y
0L
0?
#955000
1!
1'
0=
0J
0W
0C
0P
0]
1Y
1L
1?
#960000
0!
0'
1=
1J
1W
1C
1P
1]
0Y
0L
0?
#965000
1!
1'
0=
0J
0W
0C
0P
0]
1Y
1L
1?
#970000
0!
0'
1=
1J
1W
1C
1P
1]
0Y
0L
0?
#975000
1!
1'
0=
0J
0W
0C
0P
0]
1Y
1L
1?
#980000
0!
0'
1=
1J
1W
1C
1P
1]
0Y
0L
0?
#985000
1!
1'
0=
0J
0W
0C
0P
0]
1Y
1L
1?
#990000
0!
0'
1=
1J
1W
1C
1P
1]
0Y
0L
0?
#995000
1!
1'
0=
0J
0W
0C
0P
0]
1Y
1L
1?
#1000000
0!
0'
1=
1J
1W
1C
1P
1]
0Y
0L
0?
#1005000
1!
1'
0=
0J
0W
0C
0P
0]
1Y
1L
1?
#1010000
0!
0'
1=
1J
1W
1C
1P
1]
0Y
0L
0?
#1015000
1!
1'
0=
0J
0W
0C
0P
0]
1Y
1L
1?
#1020000
0!
0'
1=
1J
1W
1C
1P
1]
0Y
0L
0?
#1025000
1!
1'
0=
0J
0W
0C
0P
0]
1Y
1L
1?
#1030000
0!
0'
1=
1J
1W
1C
1P
1]
0Y
0L
0?
#1035000
1!
1'
0=
0J
0W
0C
0P
0]
1Y
1L
1?
#1040000
0!
0'
1=
1J
1W
1C
1P
1]
0Y
0L
0?
#1045000
1!
1'
0=
0J
0W
0C
0P
0]
1Y
1L
1?
#1050000
1"
0!
1(
0'
1=
1J
1W
0<
1C
1P
1]
0Y
0L
0>
1@
0A
#1055000
1!
1'
0=
0J
0W
0B
0P
0]
1Y
1L
1>
1:
11
1D
0;
0I
02
#1060000
0!
0'
1=
1J
1W
1B
1P
1]
0Y
0K
0>
1M
0N
#1065000
1!
1'
0=
0J
0W
0B
0O
0]
1Y
1K
1>
1G
13
1Q
0H
0V
10
04
1,
1^
0m
0z
0)!
06!
0C!
0P!
0s
0"!
0.!
0<!
0I!
0V!
1R!
1E!
18!
1*!
1|
1o
1&!
1x
1k
b111 `
b111 _
0j
0w
1d
b0 a
0'!
b111 -
b111 .
b101 `
b100 `
b100 _
0b
0#!
b1000 a
0c
b1010 a
b1011 a
1(!
b100 -
1Y!
1^!
1a!
b111 *
b1111 *
b100 .
b1001 a
b1111 $
1g
1t
10!
0d
b1101 a
05!
0y
0l
0W!
0X!
1[!
0`!
0a!
b1110 *
b1100 *
b1001100 *
0t
1#!
0(!
1y
b1001100 $
b101 a
00!
15!
#1070000
0!
0'
1=
1J
1W
1B
1O
1]
0X
0K
0>
1Z
0[
#1075000
1!
1'
0=
0J
0W
0B
0O
0\
1X
1K
1>
1T
15
0U
06
00
0,
0^
1m
1z
1)!
16!
1C!
1P!
1s
1"!
1.!
1<!
1I!
1V!
0R!
0E!
08!
0*!
0|
0n
1p
0q
#1080000
0!
0'
1=
1J
1W
1B
1O
1\
0X
0K
0>
#1085000
1!
1'
0=
0J
0W
0B
0O
0\
1X
1K
1>
#1090000
0!
0'
1=
1J
1W
1B
1O
1\
0X
0K
0>
#1095000
1!
1'
0=
0J
0W
0B
0O
0\
1X
1K
1>
#1100000
0!
0'
1=
1J
1W
1B
1O
1\
0X
0K
0>
#1105000
1!
1'
0=
0J
0W
0B
0O
0\
1X
1K
1>
#1110000
0!
0'
1=
1J
1W
1B
1O
1\
0X
0K
0>
#1115000
1!
1'
0=
0J
0W
0B
0O
0\
1X
1K
1>
#1120000
0!
0'
1=
1J
1W
1B
1O
1\
0X
0K
0>
#1125000
1!
1'
0=
0J
0W
0B
0O
0\
1X
1K
1>
#1130000
0!
0'
1=
1J
1W
1B
1O
1\
0X
0K
0>
#1135000
1!
1'
0=
0J
0W
0B
0O
0\
1X
1K
1>
#1140000
0!
0'
1=
1J
1W
1B
1O
1\
0X
0K
0>
#1145000
1!
1'
0=
0J
0W
0B
0O
0\
1X
1K
1>
#1150000
0"
0!
0(
0'
1=
1J
1W
1<
1B
1O
1\
0X
0K
0?
1A
0@
#1155000
1!
1'
0=
0J
0W
0C
0O
0\
1X
1K
1?
1;
12
0:
01
0D
1I
#1160000
0!
0'
1=
1J
1W
1C
1O
1\
0X
0L
0?
1N
0M
#1165000
1!
1'
0=
0J
0W
0C
0P
0\
1X
1L
1?
1H
14
0G
03
0Q
1V
#1170000
0!
0'
1=
1J
1W
1C
1P
1\
0Y
0L
0?
1[
0Z
#1175000
1!
1'
0=
0J
0W
0C
0P
0]
1Y
1L
1?
1U
16
0T
05
#1180000
0!
0'
1=
1J
1W
1C
1P
1]
0Y
0L
0?
#1185000
1!
1'
0=
0J
0W
0C
0P
0]
1Y
1L
1?
#1190000
0!
0'
1=
1J
1W
1C
1P
1]
0Y
0L
0?
#1195000
1!
1'
0=
0J
0W
0C
0P
0]
1Y
1L
1?
#1200000
0!
0'
1=
1J
1W
1C
1P
1]
0Y
0L
0?
#1205000
1!
1'
0=
0J
0W
0C
0P
0]
1Y
1L
1?
#1210000
0!
0'
1=
1J
1W
1C
1P
1]
0Y
0L
0?
#1215000
1!
1'
0=
0J
0W
0C
0P
0]
1Y
1L
1?
#1220000
0!
0'
1=
1J
1W
1C
1P
1]
0Y
0L
0?
#1225000
1!
1'
0=
0J
0W
0C
0P
0]
1Y
1L
1?
#1230000
0!
0'
1=
1J
1W
1C
1P
1]
0Y
0L
0?
#1235000
1!
1'
0=
0J
0W
0C
0P
0]
1Y
1L
1?
#1240000
0!
0'
1=
1J
1W
1C
1P
1]
0Y
0L
0?
